02 SEAS Study 1 Exploratory Analyses
…
possible_explain <- c("ST", "VG", "SG", "EX", "IN", "NR", "MR", "AR", "EP", "EN", "PR", "EM", "MT", "FR", "PS", "OR")

seas_test <- purrr::map(possible_explain, function(explain) {
    seas_united |>
      mutate(!!paste0("status_", explain, "_1") := if_else(str_detect(status_explain_1, explain), 1, 0))
  })

selected_cols <- map(seas_test, ~select(., subject, last_col()))

final_df <- reduce(selected_cols, left_join, by = "subject")

purrr::map_dfr(seas_test, ~select(., subject, last_col()))

# A tibble: 1,584 × 17
   subject   status_ST_1 status_VG_1 status_SG_1 status_EX_1 status_IN_1
   <chr>           <dbl>       <dbl>       <dbl>       <dbl>       <dbl>
 1 SEAS-5_01           0          NA          NA          NA          NA
 2 SEAS-3_02           0          NA          NA          NA          NA
 3 SEAS-5_03           0          NA          NA          NA          NA
 4 SEAS-5_04           0          NA          NA          NA          NA
 5 SEAS-4_05           1          NA          NA          NA          NA
 6 SEAS-6_06           1          NA          NA          NA          NA
 7 SEAS-4_07           0          NA          NA          NA          NA
 8 SEAS-3_08           1          NA          NA          NA          NA
 9 SEAS-4_09           0          NA          NA          NA          NA
10 SEAS-6_10           0          NA          NA          NA          NA
# ℹ 1,574 more rows
# ℹ 11 more variables: status_NR_1 <dbl>, status_MR_1 <dbl>, status_AR_1 <dbl>,
#   status_EP_1 <dbl>, status_EN_1 <dbl>, status_PR_1 <dbl>, status_EM_1 <dbl>,
#   status_MT_1 <dbl>, status_FR_1 <dbl>, status_PS_1 <dbl>, status_OR_1 <dbl>
